module gitlab.com/otus-go-hw/project

go 1.14

require (
	github.com/cenkalti/backoff/v3 v3.2.2
	github.com/cockroachdb/apd v1.1.0 // indirect
	github.com/gofrs/uuid v3.2.0+incompatible // indirect
	github.com/golang/protobuf v1.4.0
	github.com/heetch/confita v0.9.0
	github.com/jackc/fake v0.0.0-20150926172116-812a484cc733 // indirect
	github.com/jackc/pgx v3.6.2+incompatible
	github.com/jmoiron/sqlx v1.2.1-0.20190826204134-d7d95172beb5
	github.com/kr/text v0.2.0 // indirect
	github.com/lib/pq v1.2.0 // indirect
	github.com/niemeyer/pretty v0.0.0-20200227124842-a10e7caefd8e // indirect
	github.com/shopspring/decimal v1.2.0 // indirect
	github.com/sirupsen/logrus v1.6.0
	github.com/spf13/pflag v1.0.5
	github.com/streadway/amqp v0.0.0-20200108173154-1c71cc93ed71
	github.com/stretchr/testify v1.5.1 // indirect
	gitlab.com/otus-go-hw/project/algorithm v0.0.0-20200609121316-81bb74d1c049
	golang.org/x/crypto v0.0.0-20191011191535-87dc89f01550 // indirect
	golang.org/x/net v0.0.0-20200226121028-0de0cce0169b // indirect
	golang.org/x/sys v0.0.0-20191120155948-bd437916bb0e // indirect
	golang.org/x/text v0.3.2 // indirect
	google.golang.org/grpc v1.29.1
	google.golang.org/protobuf v1.21.0
	gopkg.in/check.v1 v1.0.0-20200227125254-8fa46927fb4f // indirect
	gopkg.in/yaml.v2 v2.2.8 // indirect
)
