module gitlab.com/otus-go-hw/project/project/tests

go 1.14

require (
	github.com/cenkalti/backoff v2.2.1+incompatible // indirect
	github.com/cenkalti/backoff/v3 v3.2.2 // indirect
	github.com/cucumber/godog v0.9.0
	github.com/cucumber/messages-go/v10 v10.0.3
	github.com/manifoldco/promptui v0.7.0 // indirect
	github.com/spf13/cobra v1.0.0 // indirect
	github.com/streadway/amqp v0.0.0-20200108173154-1c71cc93ed71 // indirect
	google.golang.org/grpc v1.29.1
)
